Introduction à R - Partie 2
…
Pour charger un package dans votre session R courante et ainsi avoir accès à ses fonctions, utilisez la fonction library, ex.: library(ggplot2). Notez que les guillemets ne sont pas requis cette fois.

Visualisation des données avec ggplot2

Il existe plusieurs façons de produire des graphiques dans R. Nous utiliserons dans ce cours le package ggplot2, qui permet de réaliser plusieurs types de graphiques avec la même structure de code et offre une grande gamme d’options pour personnaliser l’apparence des graphiques.

library(ggplot2)

Créer un nuage de points

Le jeu de données msleep inclus avec ggplot2 comporte des données sur le sommeil de 83 espèces de mammifères.

msleep

## # A tibble: 83 x 11
##    name  genus vore  order conservation sleep_total sleep_rem sleep_cycle awake
##    <chr> <chr> <chr> <chr> <chr>              <dbl>     <dbl>       <dbl> <dbl>
##  1 Chee~ Acin~ carni Carn~ lc                  12.1      NA        NA      11.9
##  2 Owl ~ Aotus omni  Prim~ <NA>                17         1.8      NA       7  
##  3 Moun~ Aplo~ herbi Rode~ nt                  14.4       2.4      NA       9.6
##  4 Grea~ Blar~ omni  Sori~ lc                  14.9       2.3       0.133   9.1
##  5 Cow   Bos   herbi Arti~ domesticated         4         0.7       0.667  20  
##  6 Thre~ Brad~ herbi Pilo~ <NA>                14.4       2.2       0.767   9.6
##  7 Nort~ Call~ carni Carn~ vu                   8.7       1.4       0.383  15.3
##  8 Vesp~ Calo~ <NA>  Rode~ <NA>                 7        NA        NA      17  
##  9 Dog   Canis carni Carn~ domesticated        10.1       2.9       0.333  13.9
## 10 Roe ~ Capr~ herbi Arti~ lc                   3        NA        NA      21  
## # ... with 73 more rows, and 2 more variables: brainwt <dbl>, bodywt <dbl>
…
